--- Atoms: 
ISON('33601', '2') Truth=[0.64]
ISON('33601', '3') Truth=[0.61]
ISON('33601', '0') Truth=[1]
ISON('33561', '3') Truth=[0.62]
ISON('33601', '1') Truth=[1]
ISON('33561', '1') Truth=[0.6]
ISON('33561', '2') Truth=[0.65]
ISON('33561', '0') Truth=[1]
ISON('33715', '3') Truth=[0.62]
ISON('33715', '2') Truth=[0.65]
ISON('33715', '1') Truth=[1]
ISON('33715', '0') Truth=[1]
ISON('33675', '3') Truth=[0.6]
ISON('33675', '2') Truth=[0.64]
ISON('33675', '1') Truth=[1]
ISON('33675', '0') Truth=[1]
ISON('33600', '3') Truth=[0.6]
ISON('33600', '1') Truth=[1]
ISON('33419', '2') Truth=[0.65]
ISON('33600', '2') Truth=[0.64]
ISON('33419', '1') Truth=[0.6]
ISON('33560', '2') Truth=[0.66]
ISON('33600', '0') Truth=[1]
ISON('33560', '3') Truth=[0.61]
ISON('33419', '3') Truth=[0.6]
ISON('33560', '0') Truth=[1]
ISON('33379', '1') Truth=[1]
ISON('33560', '1') Truth=[1]
ISON('33379', '0') Truth=[1]
ISON('33419', '0') Truth=[1]
ISON('33379', '3') Truth=[0.62]
ISON('33379', '2') Truth=[0.66]
ISON('33714', '3') Truth=[0.62]
ISON('33714', '2') Truth=[0.66]
ISON('33714', '1') Truth=[1]
ISON('33714', '0') Truth=[1]
ISON('33674', '3') Truth=[0.59]
ISON('33674', '2') Truth=[0.64]
ISON('33674', '1') Truth=[1]
ISON('33674', '0') Truth=[1]
ISON('33418', '3') Truth=[0.63]
ISON('33418', '2') Truth=[0.66]
ISON('33378', '2') Truth=[0.66]
ISON('33378', '1') Truth=[1]
ISON('33418', '1') Truth=[0.62]
ISON('33418', '0') Truth=[1]
ISON('33378', '3') Truth=[0.6]
ISON('33378', '0') Truth=[1]
ISON('33713', '3') Truth=[0.6]
ISON('33713', '2') Truth=[0.66]
ISON('33713', '1') Truth=[1]
ISON('33713', '0') Truth=[1]
ISON('33673', '3') Truth=[0.61]
ISON('33673', '2') Truth=[0.65]
ISON('33673', '1') Truth=[1]
ISON('33673', '0') Truth=[1]
ISON('33417', '3') Truth=[0.61]
ISON('33417', '0') Truth=[1]
ISON('33377', '3') Truth=[0.61]
ISON('33377', '2') Truth=[0.65]
ISON('33417', '2') Truth=[0.66]
ISON('33417', '1') Truth=[0.61]
ISON('33377', '1') Truth=[1]
ISON('33377', '0') Truth=[1]
ISON('33712', '3') Truth=[0.62]
ISON('33712', '2') Truth=[0.66]
ISON('33712', '1') Truth=[0.61]
ISON('33712', '0') Truth=[1]
ISON('33672', '3') Truth=[0.64]
ISON('33672', '2') Truth=[0.67]
ISON('33672', '1') Truth=[1]
ISON('33672', '0') Truth=[1]
ISON('33786', '3') Truth=[0.67]
ISON('33786', '2') Truth=[0.71]
ISON('33786', '1') Truth=[1]
ISON('33786', '0') Truth=[1]
ISON('33416', '1') Truth=[1]
ISON('33416', '0') Truth=[1]
ISON('33376', '3') Truth=[0.6]
ISON('33416', '3') Truth=[0.6]
ISON('33416', '2') Truth=[0.68]
ISON('33376', '0') Truth=[1]
ISON('33376', '2') Truth=[0.66]
ISON('33376', '1') Truth=[1]
ISON('33711', '3') Truth=[0.61]
ISON('33711', '2') Truth=[0.65]
ISON('33711', '1') Truth=[0.61]
ISON('33711', '0') Truth=[1]
ISON('33671', '3') Truth=[0.61]
ISON('33671', '2') Truth=[0.65]
ISON('33671', '1') Truth=[1]
ISON('33671', '0') Truth=[1]
ISON('33785', '3') Truth=[0.58]
ISON('33785', '2') Truth=[0.66]
ISON('33785', '1') Truth=[1]
ISON('33785', '0') Truth=[1]
ISON('33415', '2') Truth=[0.68]
ISON('33415', '1') Truth=[1]
ISON('33415', '3') Truth=[0.64]
ISON('33375', '1') Truth=[0.63]
ISON('33375', '0') Truth=[1]
ISON('33415', '0') Truth=[1]
ISON('33375', '3') Truth=[0.61]
ISON('33375', '2') Truth=[0.65]
ISON('33710', '3') Truth=[0.62]
ISON('33529', '3') Truth=[0.61]
ISON('33710', '2') Truth=[0.65]
ISON('33710', '1') Truth=[1]
ISON('33529', '1') Truth=[1]
ISON('33710', '0') Truth=[1]
ISON('33670', '3') Truth=[0.61]
ISON('33529', '2') Truth=[0.66]
ISON('33670', '2') Truth=[0.66]
ISON('33489', '1') Truth=[0.6]
ISON('33670', '1') Truth=[1]
ISON('33529', '0') Truth=[1]
ISON('33489', '0') Truth=[1]
ISON('33670', '0') Truth=[1]
ISON('33489', '3') Truth=[0.63]
ISON('33489', '2') Truth=[0.65]
ISON('33784', '3') Truth=[0.6]
ISON('33784', '2') Truth=[0.64]
ISON('33784', '1') Truth=[1]
ISON('33784', '0') Truth=[1]
ISON('33414', '3') Truth=[0.61]
ISON('33414', '2') Truth=[0.67]
ISON('33374', '2') Truth=[0.66]
ISON('33374', '1') Truth=[0.58]
ISON('33414', '1') Truth=[1]
ISON('33414', '0') Truth=[1]
ISON('33374', '3') Truth=[0.61]
ISON('33374', '0') Truth=[1]
ISON('33528', '2') Truth=[0.67]
ISON('33528', '3') Truth=[0.6]
ISON('33528', '0') Truth=[1]
ISON('33488', '2') Truth=[0.66]
ISON('33528', '1') Truth=[1]
ISON('33488', '1') Truth=[0.62]
ISON('33488', '3') Truth=[0.63]
ISON('33488', '0') Truth=[0.7]
ISON('33783', '3') Truth=[0.61]
ISON('33783', '2') Truth=[0.65]
ISON('33783', '1') Truth=[1]
ISON('33783', '0') Truth=[1]
ISON('33608', '1') Truth=[1]
ISON('33608', '2') Truth=[0.64]
ISON('33568', '2') Truth=[0.65]
ISON('33608', '0') Truth=[1]
ISON('33568', '3') Truth=[0.62]
ISON('33568', '0') Truth=[0.63]
ISON('33568', '1') Truth=[0.62]
ISON('33453', '3') Truth=[0.64]
ISON('33453', '0') Truth=[1]
ISON('33453', '2') Truth=[0.67]
ISON('33453', '1') Truth=[1]
ISON('33607', '2') Truth=[0.66]
ISON('33607', '3') Truth=[0.64]
ISON('33607', '0') Truth=[1]
ISON('33567', '3') Truth=[0.61]
ISON('33607', '1') Truth=[1]
ISON('33567', '1') Truth=[0.61]
ISON('33567', '2') Truth=[0.65]
ISON('33567', '0') Truth=[0.69]
ISON('33452', '1') Truth=[1]
ISON('33452', '0') Truth=[1]
ISON('33452', '3') Truth=[0.6]
ISON('33452', '2') Truth=[0.67]
ISON('33606', '3') Truth=[0.58]
ISON('33606', '1') Truth=[1]
ISON('33606', '2') Truth=[0.64]
ISON('33566', '2') Truth=[0.65]
ISON('33606', '0') Truth=[1]
ISON('33566', '3') Truth=[0.6]
ISON('33566', '0') Truth=[1]
ISON('33566', '1') Truth=[0.6]
ISON('33451', '2') Truth=[0.67]
ISON('33451', '1') Truth=[1]
ISON('33451', '3') Truth=[0.64]
ISON('33451', '0') Truth=[1]
ISON('33605', '2') Truth=[0.64]
ISON('33605', '3') Truth=[0.63]
ISON('33605', '0') Truth=[1]
ISON('33565', '3') Truth=[0.62]
ISON('33605', '1') Truth=[1]
ISON('33565', '1') Truth=[0.61]
ISON('33565', '2') Truth=[0.65]
ISON('33565', '0') Truth=[0.69]
ISON('33719', '3') Truth=[0.63]
ISON('33719', '2') Truth=[0.67]
ISON('33719', '1') Truth=[0.6]
ISON('33719', '0') Truth=[0.7]
ISON('33679', '3') Truth=[0.64]
ISON('33679', '2') Truth=[0.66]
ISON('33679', '1') Truth=[0.65]
ISON('33679', '0') Truth=[1]
ISON('33450', '3') Truth=[0.62]
ISON('33450', '2') Truth=[0.66]
ISON('33450', '1') Truth=[1]
ISON('33450', '0') Truth=[1]
ISON('33604', '3') Truth=[0.58]
ISON('33604', '1') Truth=[1]
ISON('33604', '2') Truth=[0.64]
ISON('33564', '2') Truth=[0.65]
ISON('33604', '0') Truth=[1]
ISON('33564', '3') Truth=[0.6]
ISON('33564', '0') Truth=[0.62]
ISON('33564', '1') Truth=[0.56]
ISON('33718', '3') Truth=[0.61]
ISON('33718', '2') Truth=[0.65]
ISON('33718', '1') Truth=[0.58]
ISON('33718', '0') Truth=[1]
ISON('33678', '3') Truth=[0.58]
ISON('33678', '2') Truth=[0.65]
ISON('33678', '1') Truth=[1]
ISON('33678', '0') Truth=[1]
ISON('33603', '2') Truth=[0.66]
ISON('33603', '3') Truth=[0.64]
ISON('33603', '0') Truth=[1]
ISON('33563', '3') Truth=[0.62]
ISON('33603', '1') Truth=[0.65]
ISON('33563', '1') Truth=[0.62]
ISON('33563', '2') Truth=[0.65]
ISON('33563', '0') Truth=[0.63]
ISON('33717', '3') Truth=[0.64]
ISON('33717', '2') Truth=[0.67]
ISON('33717', '1') Truth=[0.64]
ISON('33717', '0') Truth=[0.99]
ISON('33677', '3') Truth=[0.6]
ISON('33677', '2') Truth=[0.64]
ISON('33677', '1') Truth=[1]
ISON('33677', '0') Truth=[1]
ISON('33602', '3') Truth=[0.6]
ISON('33602', '1') Truth=[0.63]
ISON('33602', '2') Truth=[0.65]
ISON('33562', '2') Truth=[0.65]
ISON('33602', '0') Truth=[1]
ISON('33562', '3') Truth=[0.6]
ISON('33562', '0') Truth=[0.69]
ISON('33562', '1') Truth=[0.6]
ISON('33716', '3') Truth=[0.61]
ISON('33716', '2') Truth=[0.66]
ISON('33716', '1') Truth=[1]
ISON('33716', '0') Truth=[1]
ISON('33676', '3') Truth=[0.58]
ISON('33676', '2') Truth=[0.65]
ISON('33676', '1') Truth=[1]
ISON('33676', '0') Truth=[1]
ISON('33595', '2') Truth=[0.64]
ISON('33635', '0') Truth=[1]
ISON('33595', '3') Truth=[0.61]
ISON('33595', '0') Truth=[1]
ISON('33595', '1') Truth=[1]
ISON('33749', '3') Truth=[0.61]
ISON('33749', '2') Truth=[0.65]
ISON('33749', '1') Truth=[0.57]
ISON('33749', '0') Truth=[1]
ISON('33520', '2') Truth=[0.66]
ISON('33520', '3') Truth=[0.63]
ISON('33520', '0') Truth=[0.67]
ISON('33480', '2') Truth=[0.65]
ISON('33339', '1') Truth=[1]
ISON('33520', '1') Truth=[0.58]
ISON('33480', '1') Truth=[0.57]
ISON('33339', '0') Truth=[1]
ISON('33339', '3') Truth=[0.6]
ISON('33480', '3') Truth=[0.61]
ISON('33339', '2') Truth=[0.64]
ISON('33480', '0') Truth=[1]
ISON('33634', '2') Truth=[0.65]
ISON('33634', '3') Truth=[0.58]
ISON('33634', '0') Truth=[1]
ISON('33594', '3') Truth=[0.62]
ISON('33634', '1') Truth=[1]
ISON('33594', '1') Truth=[1]
ISON('33594', '2') Truth=[0.64]
ISON('33594', '0') Truth=[1]
ISON('33748', '3') Truth=[0.62]
ISON('33748', '2') Truth=[0.67]
ISON('33748', '1') Truth=[0.6]
ISON('33748', '0') Truth=[0.7]
ISON('33338', '2') Truth=[0.65]
ISON('33338', '1') Truth=[1]
ISON('33338', '3') Truth=[0.58]
ISON('33338', '0') Truth=[1]
ISON('33633', '3') Truth=[0.6]
ISON('33633', '1') Truth=[1]
ISON('33633', '2') Truth=[0.64]
ISON('33593', '2') Truth=[0.64]
ISON('33633', '0') Truth=[1]
ISON('33593', '3') Truth=[0.63]
ISON('33593', '0') Truth=[1]
ISON('33593', '1') Truth=[1]
ISON('33747', '3') Truth=[0.61]
ISON('33747', '2') Truth=[0.66]
ISON('33747', '1') Truth=[0.6]
ISON('33747', '0') Truth=[0.65]
ISON('33337', '3') Truth=[0.6]
ISON('33337', '2') Truth=[0.64]
ISON('33337', '1') Truth=[1]
ISON('33337', '0') Truth=[1]
ISON('33632', '2') Truth=[0.65]
ISON('33632', '3') Truth=[0.58]
ISON('33632', '0') Truth=[1]
ISON('33592', '3') Truth=[0.59]
ISON('33632', '1') Truth=[1]
ISON('33592', '1') Truth=[1]
ISON('33592', '2') Truth=[0.65]
ISON('33592', '0') Truth=[1]
ISON('33746', '3') Truth=[0.63]
ISON('33746', '2') Truth=[0.67]
ISON('33746', '1') Truth=[0.63]
ISON('33746', '0') Truth=[0.71]
ISON('33336', '3') Truth=[0.58]
ISON('33336', '0') Truth=[1]
ISON('33336', '2') Truth=[0.65]
ISON('33336', '1') Truth=[1]
ISON('33631', '3') Truth=[0.6]
ISON('33631', '1') Truth=[1]
ISON('33631', '2') Truth=[0.64]
ISON('33591', '2') Truth=[0.66]
ISON('33631', '0') Truth=[1]
ISON('33591', '3') Truth=[0.64]
ISON('33591', '0') Truth=[1]
ISON('33591', '1') Truth=[0.65]
ISON('33745', '3') Truth=[0.62]
ISON('33745', '2') Truth=[0.66]
ISON('33745', '1') Truth=[1]
ISON('33745', '0') Truth=[1]
ISON('33335', '1') Truth=[0.6]
ISON('33335', '0') Truth=[1]
ISON('33335', '3') Truth=[0.61]
ISON('33335', '2') Truth=[0.64]
ISON('33630', '2') Truth=[0.65]
ISON('33630', '3') Truth=[0.58]
ISON('33449', '1') Truth=[1]
ISON('33630', '0') Truth=[1]
ISON('33590', '3') Truth=[0.62]
ISON('33449', '0') Truth=[1]
ISON('33630', '1') Truth=[1]
ISON('33449', '3') Truth=[0.59]
ISON('33590', '1') Truth=[0.61]
ISON('33449', '2') Truth=[0.65]
ISON('33590', '2') Truth=[0.65]
ISON('33590', '0') Truth=[1]
ISON('33744', '3') Truth=[0.59]
ISON('33744', '2') Truth=[0.67]
ISON('33744', '1') Truth=[1]
ISON('33744', '0') Truth=[1]
ISON('33334', '2') Truth=[0.66]
ISON('33334', '1') Truth=[0.62]
ISON('33334', '3') Truth=[0.63]
ISON('33334', '0') Truth=[0.69]
ISON('33448', '2') Truth=[0.67]
ISON('33448', '1') Truth=[1]
ISON('33448', '3') Truth=[0.64]
ISON('33448', '0') Truth=[1]
ISON('33743', '3') Truth=[0.61]
ISON('33743', '2') Truth=[0.65]
ISON('33743', '1') Truth=[1]
ISON('33743', '0') Truth=[1]
ISON('33333', '3') Truth=[0.6]
ISON('33333', '2') Truth=[0.66]
ISON('33333', '1') Truth=[0.56]
ISON('33333', '0') Truth=[0.63]
ISON('33413', '3') Truth=[0.59]
ISON('33413', '0') Truth=[1]
ISON('33373', '3') Truth=[0.62]
ISON('33373', '2') Truth=[0.66]
ISON('33413', '2') Truth=[0.65]
ISON('33413', '1') Truth=[1]
ISON('33373', '1') Truth=[0.61]
ISON('33373', '0') Truth=[1]
ISON('33527', '3') Truth=[0.61]
ISON('33527', '1') Truth=[1]
ISON('33487', '3') Truth=[0.62]
ISON('33527', '2') Truth=[0.66]
ISON('33487', '2') Truth=[0.67]
ISON('33527', '0') Truth=[1]
ISON('33487', '1') Truth=[0.59]
ISON('33487', '0') Truth=[0.72]
ISON('33782', '3') Truth=[0.61]
ISON('33782', '2') Truth=[0.64]
ISON('33782', '1') Truth=[0.62]
ISON('33782', '0') Truth=[1]
ISON('33412', '1') Truth=[1]
ISON('33412', '0') Truth=[1]
ISON('33372', '3') Truth=[0.6]
ISON('33412', '3') Truth=[0.58]
ISON('33412', '2') Truth=[0.65]
ISON('33372', '0') Truth=[1]
ISON('33372', '2') Truth=[0.66]
ISON('33372', '1') Truth=[1]
ISON('33526', '2') Truth=[0.67]
ISON('33526', '3') Truth=[0.6]
ISON('33486', '3') Truth=[0.62]
ISON('33526', '0') Truth=[1]
ISON('33526', '1') Truth=[1]
ISON('33486', '0') Truth=[1]
ISON('33486', '2') Truth=[0.66]
ISON('33486', '1') Truth=[0.56]
ISON('33781', '3') Truth=[0.63]
ISON('33781', '2') Truth=[0.65]
ISON('33781', '1') Truth=[0.56]
ISON('33781', '0') Truth=[1]
ISON('33411', '2') Truth=[0.64]
ISON('33411', '1') Truth=[1]
ISON('33411', '3') Truth=[0.6]
ISON('33371', '1') Truth=[0.63]
ISON('33371', '0') Truth=[0.72]
ISON('33411', '0') Truth=[1]
ISON('33371', '3') Truth=[0.63]
ISON('33371', '2') Truth=[0.67]
ISON('33525', '3') Truth=[0.61]
ISON('33525', '1') Truth=[0.63]
ISON('33525', '2') Truth=[0.65]
ISON('33485', '1') Truth=[0.56]
ISON('33525', '0') Truth=[1]
ISON('33485', '0') Truth=[1]
ISON('33485', '3') Truth=[0.61]
ISON('33485', '2') Truth=[0.65]
ISON('33639', '3') Truth=[0.63]
ISON('33780', '3') Truth=[0.64]
ISON('33639', '1') Truth=[1]
ISON('33780', '2') Truth=[0.66]
ISON('33639', '2') Truth=[0.65]
ISON('33780', '1') Truth=[0.66]
ISON('33599', '2') Truth=[0.65]
ISON('33780', '0') Truth=[1]
ISON('33639', '0') Truth=[1]
ISON('33599', '3') Truth=[0.58]
ISON('33599', '0') Truth=[1]
ISON('33599', '1') Truth=[1]
ISON('33410', '3') Truth=[0.58]
ISON('33410', '2') Truth=[0.65]
ISON('33370', '2') Truth=[0.68]
ISON('33370', '1') Truth=[0.63]
ISON('33410', '1') Truth=[1]
ISON('33410', '0') Truth=[1]
ISON('33370', '3') Truth=[0.63]
ISON('33370', '0') Truth=[0.71]
ISON('33524', '2') Truth=[0.65]
ISON('33524', '3') Truth=[0.59]
ISON('33524', '0') Truth=[1]
ISON('33484', '2') Truth=[0.66]
ISON('33524', '1') Truth=[0.59]
ISON('33484', '1') Truth=[0.62]
ISON('33484', '3') Truth=[0.63]
ISON('33484', '0') Truth=[1]
ISON('33638', '2') Truth=[0.65]
ISON('33638', '3') Truth=[0.58]
ISON('33638', '0') Truth=[1]
ISON('33598', '3') Truth=[0.64]
ISON('33638', '1') Truth=[1]
ISON('33598', '1') Truth=[1]
ISON('33598', '2') Truth=[0.67]
ISON('33598', '0') Truth=[1]
ISON('33523', '3') Truth=[0.62]
ISON('33523', '1') Truth=[0.56]
ISON('33483', '3') Truth=[0.6]
ISON('33523', '2') Truth=[0.65]
ISON('33483', '2') Truth=[0.65]
ISON('33523', '0') Truth=[1]
ISON('33483', '1') Truth=[0.58]
ISON('33483', '0') Truth=[1]
ISON('33637', '3') Truth=[0.6]
ISON('33637', '1') Truth=[1]
ISON('33637', '2') Truth=[0.64]
ISON('33597', '2') Truth=[0.65]
ISON('33637', '0') Truth=[1]
ISON('33597', '3') Truth=[0.61]
ISON('33597', '0') Truth=[1]
ISON('33597', '1') Truth=[1]
ISON('33522', '2') Truth=[0.65]
ISON('33522', '3') Truth=[0.59]
ISON('33482', '3') Truth=[0.61]
ISON('33522', '0') Truth=[1]
ISON('33522', '1') Truth=[0.59]
ISON('33482', '0') Truth=[1]
ISON('33482', '2') Truth=[0.65]
ISON('33482', '1') Truth=[0.56]
ISON('33636', '2') Truth=[0.65]
ISON('33636', '3') Truth=[0.58]
ISON('33636', '0') Truth=[1]
ISON('33596', '3') Truth=[0.61]
ISON('33636', '1') Truth=[1]
ISON('33596', '1') Truth=[1]
ISON('33596', '2') Truth=[0.64]
ISON('33596', '0') Truth=[1]
ISON('33521', '3') Truth=[0.64]
ISON('33521', '1') Truth=[0.59]
ISON('33521', '2') Truth=[0.66]
ISON('33481', '1') Truth=[0.62]
ISON('33521', '0') Truth=[0.66]
ISON('33481', '0') Truth=[1]
ISON('33481', '3') Truth=[0.63]
ISON('33481', '2') Truth=[0.66]
ISON('33635', '3') Truth=[0.6]
ISON('33635', '1') Truth=[1]
ISON('33635', '2') Truth=[0.64]
ISON('33440', '2') Truth=[0.64]
ISON('33440', '1') Truth=[1]
ISON('33440', '3') Truth=[0.6]
ISON('33440', '0') Truth=[1]
ISON('33554', '3') Truth=[0.63]
ISON('33554', '1') Truth=[0.6]
ISON('33554', '2') Truth=[0.65]
ISON('33554', '0') Truth=[1]
ISON('33708', '3') Truth=[0.62]
ISON('33708', '2') Truth=[0.65]
ISON('33708', '1') Truth=[1]
ISON('33708', '0') Truth=[1]
ISON('33668', '3') Truth=[0.63]
ISON('33668', '2') Truth=[0.64]
ISON('33668', '1') Truth=[1]
ISON('33668', '0') Truth=[1]
ISON('33553', '2') Truth=[0.67]
ISON('33553', '3') Truth=[0.64]
ISON('33553', '0') Truth=[1]
ISON('33553', '1') Truth=[0.65]
ISON('33707', '3') Truth=[0.6]
ISON('33707', '2') Truth=[0.65]
ISON('33707', '1') Truth=[1]
ISON('33707', '0') Truth=[1]
ISON('33667', '3') Truth=[0.58]
ISON('33667', '2') Truth=[0.64]
ISON('33667', '1') Truth=[1]
ISON('33667', '0') Truth=[1]
ISON('33552', '3') Truth=[0.58]
ISON('33552', '1') Truth=[1]
ISON('33552', '2') Truth=[0.65]
ISON('33552', '0') Truth=[1]
ISON('33706', '3') Truth=[0.62]
ISON('33706', '2') Truth=[0.65]
ISON('33706', '1') Truth=[1]
ISON('33706', '0') Truth=[1]
ISON('33666', '3') Truth=[0.6]
ISON('33666', '2') Truth=[0.64]
ISON('33666', '1') Truth=[1]
ISON('33666', '0') Truth=[1]
ISON('33551', '2') Truth=[0.65]
ISON('33551', '3') Truth=[0.63]
ISON('33551', '0') Truth=[1]
ISON('33551', '1') Truth=[1]
ISON('33705', '3') Truth=[0.61]
ISON('33705', '2') Truth=[0.65]
ISON('33705', '1') Truth=[1]
ISON('33705', '0') Truth=[1]
ISON('33665', '3') Truth=[0.58]
ISON('33665', '2') Truth=[0.64]
ISON('33665', '1') Truth=[1]
ISON('33665', '0') Truth=[1]
ISON('33779', '3') Truth=[0.58]
ISON('33779', '2') Truth=[0.65]
ISON('33779', '1') Truth=[1]
ISON('33779', '0') Truth=[1]
ISON('33409', '1') Truth=[1]
ISON('33550', '3') Truth=[0.58]
ISON('33409', '0') Truth=[1]
ISON('33369', '3') Truth=[0.6]
ISON('33409', '3') Truth=[0.6]
ISON('33550', '1') Truth=[1]
ISON('33409', '2') Truth=[0.64]
ISON('33550', '2') Truth=[0.65]
ISON('33369', '0') Truth=[1]
ISON('33550', '0') Truth=[1]
ISON('33369', '2') Truth=[0.67]
ISON('33369', '1') Truth=[1]
ISON('33704', '3') Truth=[0.61]
ISON('33704', '2') Truth=[0.65]
ISON('33704', '1') Truth=[1]
ISON('33704', '0') Truth=[1]
ISON('33664', '3') Truth=[0.63]
ISON('33664', '2') Truth=[0.64]
ISON('33664', '1') Truth=[1]
ISON('33664', '0') Truth=[1]
ISON('33778', '3') Truth=[0.63]
ISON('33778', '2') Truth=[0.65]
ISON('33778', '1') Truth=[1]
ISON('33778', '0') Truth=[1]
ISON('33408', '2') Truth=[0.65]
ISON('33408', '1') Truth=[1]
ISON('33408', '3') Truth=[0.58]
ISON('33368', '1') Truth=[0.63]
ISON('33368', '0') Truth=[0.71]
ISON('33408', '0') Truth=[1]
ISON('33368', '3') Truth=[0.63]
ISON('33368', '2') Truth=[0.67]
ISON('33703', '3') Truth=[0.59]
ISON('33703', '2') Truth=[0.66]
ISON('33703', '1') Truth=[1]
ISON('33703', '0') Truth=[1]
ISON('33663', '3') Truth=[0.58]
ISON('33663', '2') Truth=[0.64]
ISON('33663', '1') Truth=[1]
ISON('33663', '0') Truth=[1]
ISON('33777', '3') Truth=[0.58]
ISON('33777', '2') Truth=[0.65]
ISON('33777', '1') Truth=[1]
ISON('33777', '0') Truth=[1]
ISON('33407', '3') Truth=[0.6]
ISON('33407', '2') Truth=[0.64]
ISON('33367', '2') Truth=[0.66]
ISON('33367', '1') Truth=[0.59]
ISON('33407', '1') Truth=[1]
ISON('33407', '0') Truth=[1]
ISON('33367', '3') Truth=[0.63]
ISON('33367', '0') Truth=[0.65]
ISON('33702', '3') Truth=[0.63]
ISON('33702', '2') Truth=[0.65]
ISON('33702', '1') Truth=[1]
ISON('33702', '0') Truth=[1]
ISON('33662', '3') Truth=[0.6]
ISON('33662', '2') Truth=[0.64]
ISON('33662', '1') Truth=[1]
ISON('33662', '0') Truth=[1]
ISON('33447', '3') Truth=[0.61]
ISON('33447', '2') Truth=[0.65]
ISON('33447', '1') Truth=[1]
ISON('33447', '0') Truth=[1]
ISON('33742', '3') Truth=[0.59]
ISON('33742', '2') Truth=[0.67]
ISON('33742', '1') Truth=[1]
ISON('33742', '0') Truth=[1]
ISON('33332', '3') Truth=[0.62]
ISON('33332', '0') Truth=[0.68]
ISON('33332', '2') Truth=[0.66]
ISON('33332', '1') Truth=[0.62]
ISON('33446', '3') Truth=[0.6]
ISON('33446', '0') Truth=[1]
ISON('33446', '2') Truth=[0.64]
ISON('33446', '1') Truth=[1]
ISON('33741', '3') Truth=[0.61]
ISON('33741', '2') Truth=[0.65]
ISON('33741', '1') Truth=[1]
ISON('33741', '0') Truth=[1]
ISON('33331', '1') Truth=[0.61]
ISON('33331', '0') Truth=[1]
ISON('33331', '3') Truth=[0.61]
ISON('33331', '2') Truth=[0.65]
ISON('33445', '1') Truth=[1]
ISON('33445', '0') Truth=[1]
ISON('33445', '3') Truth=[0.58]
ISON('33445', '2') Truth=[0.65]
ISON('33740', '3') Truth=[0.6]
ISON('33740', '2') Truth=[0.66]
ISON('33740', '1') Truth=[1]
ISON('33559', '2') Truth=[0.65]
ISON('33740', '0') Truth=[1]
ISON('33559', '3') Truth=[0.59]
ISON('33559', '0') Truth=[1]
ISON('33559', '1') Truth=[1]
ISON('33330', '2') Truth=[0.65]
ISON('33330', '1') Truth=[1]
ISON('33330', '3') Truth=[0.59]
ISON('33330', '0') Truth=[1]
ISON('33444', '2') Truth=[0.66]
ISON('33444', '1') Truth=[0.65]
ISON('33444', '3') Truth=[0.64]
ISON('33444', '0') Truth=[1]
ISON('33558', '3') Truth=[0.63]
ISON('33558', '1') Truth=[1]
ISON('33558', '2') Truth=[0.64]
ISON('33558', '0') Truth=[1]
ISON('33443', '3') Truth=[0.61]
ISON('33443', '2') Truth=[0.66]
ISON('33443', '1') Truth=[0.61]
ISON('33443', '0') Truth=[1]
ISON('33557', '2') Truth=[0.65]
ISON('33557', '3') Truth=[0.58]
ISON('33557', '0') Truth=[1]
ISON('33557', '1') Truth=[1]
ISON('33442', '3') Truth=[0.61]
ISON('33442', '0') Truth=[1]
ISON('33442', '2') Truth=[0.66]
ISON('33442', '1') Truth=[1]
ISON('33556', '3') Truth=[0.63]
ISON('33556', '1') Truth=[1]
ISON('33556', '2') Truth=[0.65]
ISON('33556', '0') Truth=[1]
ISON('33441', '1') Truth=[1]
ISON('33441', '0') Truth=[1]
ISON('33441', '3') Truth=[0.59]
ISON('33441', '2') Truth=[0.65]
ISON('33555', '2') Truth=[0.65]
ISON('33555', '3') Truth=[0.58]
ISON('33555', '0') Truth=[1]
ISON('33555', '1') Truth=[1]
ISON('33709', '3') Truth=[0.6]
ISON('33709', '2') Truth=[0.65]
ISON('33709', '1') Truth=[1]
ISON('33709', '0') Truth=[1]
ISON('33669', '3') Truth=[0.58]
ISON('33669', '2') Truth=[0.64]
ISON('33669', '1') Truth=[1]
ISON('33669', '0') Truth=[1]
ISON('33474', '1') Truth=[1]
ISON('33514', '0') Truth=[1]
ISON('33474', '0') Truth=[1]
ISON('33474', '3') Truth=[0.6]
ISON('33474', '2') Truth=[0.65]
ISON('33628', '3') Truth=[0.62]
ISON('33628', '1') Truth=[0.61]
ISON('33628', '2') Truth=[0.65]
ISON('33588', '2') Truth=[0.65]
ISON('33628', '0') Truth=[1]
ISON('33588', '3') Truth=[0.63]
ISON('33588', '0') Truth=[1]
ISON('33588', '1') Truth=[1]
ISON('33513', '2') Truth=[0.67]
ISON('33513', '3') Truth=[0.63]
ISON('33513', '0') Truth=[0.72]
ISON('33473', '2') Truth=[0.67]
ISON('33513', '1') Truth=[0.63]
ISON('33473', '1') Truth=[1]
ISON('33473', '3') Truth=[0.64]
ISON('33473', '0') Truth=[1]
ISON('33627', '2') Truth=[0.65]
ISON('33627', '3') Truth=[0.62]
ISON('33627', '0') Truth=[1]
ISON('33587', '3') Truth=[0.64]
ISON('33627', '1') Truth=[0.62]
ISON('33587', '1') Truth=[1]
ISON('33587', '2') Truth=[0.67]
ISON('33587', '0') Truth=[1]
ISON('33512', '3') Truth=[0.63]
ISON('33472', '3') Truth=[0.58]
ISON('33512', '1') Truth=[0.6]
ISON('33512', '2') Truth=[0.67]
ISON('33472', '2') Truth=[0.65]
ISON('33512', '0') Truth=[0.71]
ISON('33472', '1') Truth=[1]
ISON('33472', '0') Truth=[1]
ISON('33626', '3') Truth=[0.63]
ISON('33626', '1') Truth=[0.6]
ISON('33626', '2') Truth=[0.65]
ISON('33586', '2') Truth=[0.65]
ISON('33626', '0') Truth=[1]
ISON('33586', '3') Truth=[0.58]
ISON('33586', '0') Truth=[1]
ISON('33586', '1') Truth=[1]
ISON('33511', '2') Truth=[0.65]
ISON('33471', '3') Truth=[0.64]
ISON('33511', '3') Truth=[0.61]
ISON('33511', '0') Truth=[1]
ISON('33511', '1') Truth=[0.63]
ISON('33471', '0') Truth=[1]
ISON('33471', '2') Truth=[0.67]
ISON('33471', '1') Truth=[1]
ISON('33625', '2') Truth=[0.65]
ISON('33625', '3') Truth=[0.59]
ISON('33625', '0') Truth=[1]
ISON('33585', '3') Truth=[0.64]
ISON('33625', '1') Truth=[1]
ISON('33585', '1') Truth=[0.64]
ISON('33585', '2') Truth=[0.67]
ISON('33585', '0') Truth=[0.7]
ISON('33739', '3') Truth=[0.62]
ISON('33739', '2') Truth=[0.66]
ISON('33739', '1') Truth=[1]
ISON('33739', '0') Truth=[1]
ISON('33699', '3') Truth=[0.62]
ISON('33699', '2') Truth=[0.64]
ISON('33699', '1') Truth=[0.6]
ISON('33699', '0') Truth=[1]
ISON('33510', '3') Truth=[0.59]
ISON('33329', '3') Truth=[0.58]
ISON('33510', '1') Truth=[1]
ISON('33510', '2') Truth=[0.67]
ISON('33470', '1') Truth=[1]
ISON('33329', '0') Truth=[1]
ISON('33470', '0') Truth=[1]
ISON('33510', '0') Truth=[1]
ISON('33470', '3') Truth=[0.58]
ISON('33329', '2') Truth=[0.64]
ISON('33470', '2') Truth=[0.65]
ISON('33329', '1') Truth=[1]
ISON('33624', '3') Truth=[0.6]
ISON('33624', '1') Truth=[1]
ISON('33624', '2') Truth=[0.64]
ISON('33584', '2') Truth=[0.66]
ISON('33624', '0') Truth=[1]
ISON('33584', '3') Truth=[0.63]
ISON('33584', '0') Truth=[0.7]
ISON('33584', '1') Truth=[0.6]
ISON('33738', '3') Truth=[0.6]
ISON('33738', '2') Truth=[0.66]
ISON('33738', '1') Truth=[1]
ISON('33738', '0') Truth=[1]
ISON('33698', '3') Truth=[0.61]
ISON('33698', '2') Truth=[0.64]
ISON('33698', '1') Truth=[1]
ISON('33698', '0') Truth=[1]
ISON('33328', '1') Truth=[1]
ISON('33328', '0') Truth=[1]
ISON('33328', '3') Truth=[0.6]
ISON('33328', '2') Truth=[0.64]
ISON('33623', '2') Truth=[0.65]
ISON('33623', '3') Truth=[0.59]
ISON('33623', '0') Truth=[1]
ISON('33583', '3') Truth=[0.62]
ISON('33623', '1') Truth=[1]
ISON('33583', '1') Truth=[0.61]
ISON('33583', '2') Truth=[0.66]
ISON('33583', '0') Truth=[1]
ISON('33737', '3') Truth=[0.62]
ISON('33737', '2') Truth=[0.66]
ISON('33737', '1') Truth=[1]
ISON('33737', '0') Truth=[1]
ISON('33697', '3') Truth=[0.64]
ISON('33697', '2') Truth=[0.66]
ISON('33697', '1') Truth=[0.65]
ISON('33697', '0') Truth=[1]
ISON('33327', '2') Truth=[0.64]
ISON('33327', '1') Truth=[1]
ISON('33327', '3') Truth=[0.58]
ISON('33327', '0') Truth=[1]
ISON('33622', '3') Truth=[0.6]
ISON('33622', '1') Truth=[1]
ISON('33622', '2') Truth=[0.64]
ISON('33582', '2') Truth=[0.65]
ISON('33622', '0') Truth=[1]
ISON('33582', '3') Truth=[0.59]
ISON('33582', '0') Truth=[1]
ISON('33582', '1') Truth=[1]
ISON('33736', '3') Truth=[0.6]
ISON('33736', '2') Truth=[0.66]
ISON('33736', '1') Truth=[1]
ISON('33736', '0') Truth=[1]
ISON('33696', '3') Truth=[0.61]
ISON('33696', '2') Truth=[0.66]
ISON('33696', '1') Truth=[0.61]
ISON('33696', '0') Truth=[1]
ISON('33776', '3') Truth=[0.63]
ISON('33776', '2') Truth=[0.65]
ISON('33776', '1') Truth=[1]
ISON('33776', '0') Truth=[1]
ISON('33406', '3') Truth=[0.58]
ISON('33406', '0') Truth=[1]
ISON('33366', '3') Truth=[0.62]
ISON('33366', '2') Truth=[0.66]
ISON('33406', '2') Truth=[0.65]
ISON('33406', '1') Truth=[1]
ISON('33366', '1') Truth=[0.65]
ISON('33366', '0') Truth=[0.69]
ISON('33701', '3') Truth=[0.61]
ISON('33701', '2') Truth=[0.65]
ISON('33701', '1') Truth=[0.63]
ISON('33701', '0') Truth=[1]
ISON('33661', '3') Truth=[0.58]
ISON('33661', '2') Truth=[0.64]
ISON('33661', '1') Truth=[1]
ISON('33661', '0') Truth=[1]
ISON('33775', '3') Truth=[0.58]
ISON('33775', '2') Truth=[0.65]
ISON('33775', '1') Truth=[1]
ISON('33775', '0') Truth=[1]
ISON('33405', '1') Truth=[1]
ISON('33405', '0') Truth=[1]
ISON('33365', '3') Truth=[0.62]
ISON('33405', '3') Truth=[0.6]
ISON('33405', '2') Truth=[0.64]
ISON('33365', '0') Truth=[1]
ISON('33365', '2') Truth=[0.66]
ISON('33365', '1') Truth=[1]
ISON('33700', '3') Truth=[0.6]
ISON('33700', '2') Truth=[0.65]
ISON('33519', '2') Truth=[0.66]
ISON('33700', '1') Truth=[0.57]
ISON('33519', '3') Truth=[0.62]
ISON('33479', '3') Truth=[0.62]
ISON('33700', '0') Truth=[1]
ISON('33660', '3') Truth=[0.63]
ISON('33519', '0') Truth=[1]
ISON('33660', '2') Truth=[0.64]
ISON('33519', '1') Truth=[0.61]
ISON('33660', '1') Truth=[1]
ISON('33479', '0') Truth=[1]
ISON('33660', '0') Truth=[1]
ISON('33479', '2') Truth=[0.65]
ISON('33479', '1') Truth=[0.62]
ISON('33774', '3') Truth=[0.63]
ISON('33774', '2') Truth=[0.65]
ISON('33774', '1') Truth=[1]
ISON('33774', '0') Truth=[1]
ISON('33404', '2') Truth=[0.65]
ISON('33404', '1') Truth=[1]
ISON('33404', '3') Truth=[0.58]
ISON('33364', '1') Truth=[0.65]
ISON('33364', '0') Truth=[1]
ISON('33404', '0') Truth=[1]
ISON('33364', '3') Truth=[0.63]
ISON('33364', '2') Truth=[0.67]
ISON('33518', '3') Truth=[0.6]
ISON('33518', '1') Truth=[1]
ISON('33518', '2') Truth=[0.66]
ISON('33478', '1') Truth=[0.59]
ISON('33518', '0') Truth=[1]
ISON('33478', '0') Truth=[1]
ISON('33478', '3') Truth=[0.6]
ISON('33478', '2') Truth=[0.65]
ISON('33773', '3') Truth=[0.58]
ISON('33773', '2') Truth=[0.65]
ISON('33773', '1') Truth=[1]
ISON('33773', '0') Truth=[1]
ISON('33403', '3') Truth=[0.59]
ISON('33403', '2') Truth=[0.65]
ISON('33363', '2') Truth=[0.65]
ISON('33363', '1') Truth=[0.59]
ISON('33403', '1') Truth=[1]
ISON('33403', '0') Truth=[1]
ISON('33363', '3') Truth=[0.59]
ISON('33363', '0') Truth=[1]
ISON('33517', '2') Truth=[0.67]
ISON('33517', '3') Truth=[0.63]
ISON('33517', '0') Truth=[1]
ISON('33477', '2') Truth=[0.65]
ISON('33517', '1') Truth=[1]
ISON('33477', '1') Truth=[0.56]
ISON('33477', '3') Truth=[0.61]
ISON('33477', '0') Truth=[1]
ISON('33772', '3') Truth=[0.63]
ISON('33772', '2') Truth=[0.65]
ISON('33772', '1') Truth=[1]
ISON('33772', '0') Truth=[1]
ISON('33402', '3') Truth=[0.6]
ISON('33402', '0') Truth=[1]
ISON('33362', '3') Truth=[0.61]
ISON('33362', '2') Truth=[0.65]
ISON('33402', '2') Truth=[0.66]
ISON('33402', '1') Truth=[1]
ISON('33362', '1') Truth=[0.57]
ISON('33362', '0') Truth=[1]
ISON('33516', '3') Truth=[0.6]
ISON('33516', '1') Truth=[1]
ISON('33476', '3') Truth=[0.63]
ISON('33516', '2') Truth=[0.67]
ISON('33476', '2') Truth=[0.66]
ISON('33516', '0') Truth=[1]
ISON('33476', '1') Truth=[0.65]
ISON('33476', '0') Truth=[1]
ISON('33771', '3') Truth=[0.58]
ISON('33771', '2') Truth=[0.65]
ISON('33771', '1') Truth=[1]
ISON('33771', '0') Truth=[1]
ISON('33401', '1') Truth=[0.65]
ISON('33401', '0') Truth=[1]
ISON('33361', '3') Truth=[0.6]
ISON('33401', '3') Truth=[0.59]
ISON('33401', '2') Truth=[0.65]
ISON('33361', '0') Truth=[1]
ISON('33361', '2') Truth=[0.65]
ISON('33361', '1') Truth=[0.57]
ISON('33515', '2') Truth=[0.67]
ISON('33515', '3') Truth=[0.63]
ISON('33475', '3') Truth=[0.58]
ISON('33515', '0') Truth=[1]
ISON('33515', '1') Truth=[1]
ISON('33475', '0') Truth=[1]
ISON('33475', '2') Truth=[0.64]
ISON('33475', '1') Truth=[1]
ISON('33629', '2') Truth=[0.65]
ISON('33629', '3') Truth=[0.61]
ISON('33770', '3') Truth=[0.63]
ISON('33629', '0') Truth=[1]
ISON('33589', '3') Truth=[0.58]
ISON('33770', '2') Truth=[0.65]
ISON('33629', '1') Truth=[1]
ISON('33770', '1') Truth=[1]
ISON('33589', '1') Truth=[1]
ISON('33770', '0') Truth=[1]
ISON('33589', '2') Truth=[0.64]
ISON('33589', '0') Truth=[1]
ISON('33400', '2') Truth=[0.66]
ISON('33400', '1') Truth=[0.6]
ISON('33400', '3') Truth=[0.61]
ISON('33360', '1') Truth=[0.56]
ISON('33360', '0') Truth=[1]
ISON('33400', '0') Truth=[0.7]
ISON('33360', '3') Truth=[0.62]
ISON('33360', '2') Truth=[0.65]
ISON('33514', '3') Truth=[0.6]
ISON('33514', '1') Truth=[1]
ISON('33514', '2') Truth=[0.66]
ISON('33433', '2') Truth=[0.64]
ISON('33433', '1') Truth=[1]
ISON('33433', '3') Truth=[0.6]
ISON('33393', '1') Truth=[0.58]
ISON('33393', '0') Truth=[0.63]
ISON('33433', '0') Truth=[1]
ISON('33393', '3') Truth=[0.63]
ISON('33393', '2') Truth=[0.65]
ISON('33547', '3') Truth=[0.59]
ISON('33547', '1') Truth=[0.65]
ISON('33547', '2') Truth=[0.65]
ISON('33547', '0') Truth=[1]
ISON('33432', '3') Truth=[0.61]
ISON('33432', '2') Truth=[0.65]
ISON('33392', '2') Truth=[0.67]
ISON('33392', '1') Truth=[0.63]
ISON('33432', '1') Truth=[1]
ISON('33432', '0') Truth=[1]
ISON('33392', '3') Truth=[0.63]
ISON('33392', '0') Truth=[0.71]
ISON('33546', '2') Truth=[0.66]
ISON('33546', '3') Truth=[0.6]
ISON('33546', '0') Truth=[1]
ISON('33546', '1') Truth=[1]
ISON('33431', '3') Truth=[0.61]
ISON('33431', '0') Truth=[1]
ISON('33391', '3') Truth=[0.62]
ISON('33391', '2') Truth=[0.66]
ISON('33431', '2') Truth=[0.66]
ISON('33431', '1') Truth=[1]
ISON('33391', '1') Truth=[1]
ISON('33391', '0') Truth=[1]
ISON('33545', '3') Truth=[0.59]
ISON('33545', '1') Truth=[0.65]
ISON('33545', '2') Truth=[0.66]
ISON('33545', '0') Truth=[1]
ISON('33659', '3') Truth=[0.58]
ISON('33659', '1') Truth=[1]
ISON('33659', '2') Truth=[0.64]
ISON('33659', '0') Truth=[1]
ISON('33430', '1') Truth=[0.65]
ISON('33430', '0') Truth=[1]
ISON('33390', '3') Truth=[0.59]
ISON('33430', '3') Truth=[0.64]
ISON('33430', '2') Truth=[0.66]
ISON('33390', '0') Truth=[1]
ISON('33390', '2') Truth=[0.67]
ISON('33390', '1') Truth=[1]
ISON('33544', '2') Truth=[0.66]
ISON('33544', '3') Truth=[0.61]
ISON('33544', '0') Truth=[0.71]
ISON('33544', '1') Truth=[0.6]
ISON('33658', '2') Truth=[0.64]
ISON('33658', '3') Truth=[0.6]
ISON('33658', '0') Truth=[1]
ISON('33658', '1') Truth=[1]
ISON('33543', '3') Truth=[0.63]
ISON('33543', '1') Truth=[0.63]
ISON('33543', '2') Truth=[0.67]
ISON('33543', '0') Truth=[0.72]
ISON('33657', '3') Truth=[0.63]
ISON('33657', '1') Truth=[1]
ISON('33657', '2') Truth=[0.66]
ISON('33657', '0') Truth=[1]
ISON('33542', '2') Truth=[0.66]
ISON('33542', '3') Truth=[0.59]
ISON('33542', '0') Truth=[1]
ISON('33542', '1') Truth=[1]
ISON('33656', '2') Truth=[0.64]
ISON('33656', '3') Truth=[0.58]
ISON('33656', '0') Truth=[1]
ISON('33656', '1') Truth=[1]
ISON('33541', '3') Truth=[0.63]
ISON('33541', '1') Truth=[0.6]
ISON('33541', '2') Truth=[0.65]
ISON('33541', '0') Truth=[1]
ISON('33326', '3') Truth=[0.6]
ISON('33326', '2') Truth=[0.66]
ISON('33326', '1') Truth=[1]
ISON('33326', '0') Truth=[1]
ISON('33621', '2') Truth=[0.65]
ISON('33621', '3') Truth=[0.6]
ISON('33621', '0') Truth=[1]
ISON('33581', '3') Truth=[0.64]
ISON('33621', '1') Truth=[1]
ISON('33581', '1') Truth=[0.65]
ISON('33581', '2') Truth=[0.66]
ISON('33581', '0') Truth=[1]
ISON('33735', '3') Truth=[0.62]
ISON('33735', '2') Truth=[0.66]
ISON('33735', '1') Truth=[1]
ISON('33735', '0') Truth=[1]
ISON('33695', '3') Truth=[0.61]
ISON('33695', '2') Truth=[0.65]
ISON('33695', '1') Truth=[1]
ISON('33695', '0') Truth=[1]
ISON('33325', '3') Truth=[0.58]
ISON('33325', '0') Truth=[1]
ISON('33325', '2') Truth=[0.64]
ISON('33325', '1') Truth=[1]
ISON('33620', '3') Truth=[0.61]
ISON('33439', '3') Truth=[0.58]
ISON('33620', '1') Truth=[1]
ISON('33620', '2') Truth=[0.66]
ISON('33439', '0') Truth=[1]
ISON('33399', '3') Truth=[0.63]
ISON('33580', '2') Truth=[0.66]
ISON('33399', '2') Truth=[0.66]
ISON('33620', '0') Truth=[1]
ISON('33580', '3') Truth=[0.62]
ISON('33439', '2') Truth=[0.64]
ISON('33580', '0') Truth=[1]
ISON('33439', '1') Truth=[1]
ISON('33580', '1') Truth=[0.61]
ISON('33399', '1') Truth=[0.63]
ISON('33399', '0') Truth=[0.71]
ISON('33734', '3') Truth=[0.6]
ISON('33734', '2') Truth=[0.66]
ISON('33734', '1') Truth=[1]
ISON('33734', '0') Truth=[1]
ISON('33694', '3') Truth=[0.63]
ISON('33694', '2') Truth=[0.66]
ISON('33694', '1') Truth=[0.65]
ISON('33694', '0') Truth=[0.7]
ISON('33324', '1') Truth=[1]
ISON('33324', '0') Truth=[1]
ISON('33324', '3') Truth=[0.6]
ISON('33324', '2') Truth=[0.65]
ISON('33438', '1') Truth=[1]
ISON('33438', '0') Truth=[1]
ISON('33398', '3') Truth=[0.59]
ISON('33438', '3') Truth=[0.58]
ISON('33438', '2') Truth=[0.65]
ISON('33398', '0') Truth=[1]
ISON('33398', '2') Truth=[0.66]
ISON('33398', '1') Truth=[1]
ISON('33733', '3') Truth=[0.62]
ISON('33733', '2') Truth=[0.66]
ISON('33733', '1') Truth=[1]
ISON('33733', '0') Truth=[1]
ISON('33693', '3') Truth=[0.63]
ISON('33693', '2') Truth=[0.66]
ISON('33693', '1') Truth=[0.62]
ISON('33693', '0') Truth=[0.69]
ISON('33323', '2') Truth=[0.71]
ISON('33323', '1') Truth=[1]
ISON('33323', '3') Truth=[0.64]
ISON('33323', '0') Truth=[1]
ISON('33437', '2') Truth=[0.64]
ISON('33437', '1') Truth=[1]
ISON('33437', '3') Truth=[0.61]
ISON('33397', '1') Truth=[0.61]
ISON('33397', '0') Truth=[1]
ISON('33437', '0') Truth=[1]
ISON('33397', '3') Truth=[0.62]
ISON('33397', '2') Truth=[0.65]
ISON('33732', '3') Truth=[0.6]
ISON('33732', '2') Truth=[0.66]
ISON('33732', '1') Truth=[1]
ISON('33732', '0') Truth=[1]
ISON('33692', '3') Truth=[0.6]
ISON('33692', '2') Truth=[0.65]
ISON('33692', '1') Truth=[0.62]
ISON('33692', '0') Truth=[1]
ISON('33436', '3') Truth=[0.62]
ISON('33436', '2') Truth=[0.65]
ISON('33396', '2') Truth=[0.65]
ISON('33396', '1') Truth=[0.57]
ISON('33436', '1') Truth=[1]
ISON('33436', '0') Truth=[1]
ISON('33396', '3') Truth=[0.61]
ISON('33396', '0') Truth=[1]
ISON('33731', '3') Truth=[0.61]
ISON('33731', '2') Truth=[0.65]
ISON('33731', '1') Truth=[1]
ISON('33731', '0') Truth=[1]
ISON('33691', '3') Truth=[0.63]
ISON('33691', '2') Truth=[0.65]
ISON('33691', '1') Truth=[1]
ISON('33691', '0') Truth=[1]
ISON('33435', '3') Truth=[0.62]
ISON('33435', '0') Truth=[1]
ISON('33395', '3') Truth=[0.64]
ISON('33395', '2') Truth=[0.66]
ISON('33435', '2') Truth=[0.65]
ISON('33435', '1') Truth=[1]
ISON('33395', '1') Truth=[0.59]
ISON('33395', '0') Truth=[0.66]
ISON('33730', '3') Truth=[0.6]
ISON('33730', '2') Truth=[0.66]
ISON('33549', '3') Truth=[0.63]
ISON('33730', '1') Truth=[1]
ISON('33730', '0') Truth=[1]
ISON('33690', '3') Truth=[0.59]
ISON('33549', '1') Truth=[0.6]
ISON('33690', '2') Truth=[0.66]
ISON('33549', '2') Truth=[0.65]
ISON('33690', '1') Truth=[1]
ISON('33690', '0') Truth=[1]
ISON('33549', '0') Truth=[1]
ISON('33434', '1') Truth=[1]
ISON('33434', '0') Truth=[1]
ISON('33394', '3') Truth=[0.62]
ISON('33434', '3') Truth=[0.59]
ISON('33434', '2') Truth=[0.65]
ISON('33394', '0') Truth=[0.64]
ISON('33394', '2') Truth=[0.65]
ISON('33394', '1') Truth=[0.62]
ISON('33548', '2') Truth=[0.65]
ISON('33548', '3') Truth=[0.6]
ISON('33548', '0') Truth=[1]
ISON('33548', '1') Truth=[0.61]
ISON('33353', '1') Truth=[0.56]
ISON('33353', '0') Truth=[1]
ISON('33353', '3') Truth=[0.61]
ISON('33353', '2') Truth=[0.65]
ISON('33507', '3') Truth=[0.62]
ISON('33507', '1') Truth=[1]
ISON('33507', '2') Truth=[0.66]
ISON('33467', '1') Truth=[0.62]
ISON('33507', '0') Truth=[1]
ISON('33467', '0') Truth=[1]
ISON('33467', '3') Truth=[0.6]
ISON('33467', '2') Truth=[0.65]
ISON('33762', '3') Truth=[0.63]
ISON('33762', '2') Truth=[0.65]
ISON('33762', '1') Truth=[0.6]
ISON('33762', '0') Truth=[1]
ISON('33352', '2') Truth=[0.66]
ISON('33352', '1') Truth=[0.6]
ISON('33352', '3') Truth=[0.6]
ISON('33352', '0') Truth=[0.7]
ISON('33506', '2') Truth=[0.66]
ISON('33506', '3') Truth=[0.6]
ISON('33506', '0') Truth=[1]
ISON('33466', '2') Truth=[0.65]
ISON('33506', '1') Truth=[1]
ISON('33466', '1') Truth=[1]
ISON('33466', '3') Truth=[0.63]
ISON('33466', '0') Truth=[1]
ISON('33761', '3') Truth=[0.61]
ISON('33761', '2') Truth=[0.65]
ISON('33761', '1') Truth=[0.61]
ISON('33761', '0') Truth=[1]
ISON('33351', '3') Truth=[0.63]
ISON('33351', '2') Truth=[0.67]
ISON('33351', '1') Truth=[0.59]
ISON('33351', '0') Truth=[0.71]
ISON('33505', '3') Truth=[0.61]
ISON('33505', '1') Truth=[1]
ISON('33465', '3') Truth=[0.64]
ISON('33505', '2') Truth=[0.65]
ISON('33465', '2') Truth=[0.67]
ISON('33505', '0') Truth=[1]
ISON('33465', '1') Truth=[1]
ISON('33465', '0') Truth=[1]
ISON('33619', '3') Truth=[0.63]
ISON('33619', '1') Truth=[0.6]
ISON('33760', '3') Truth=[0.58]
ISON('33619', '2') Truth=[0.65]
ISON('33760', '2') Truth=[0.65]
ISON('33579', '2') Truth=[0.64]
ISON('33760', '1') Truth=[1]
ISON('33619', '0') Truth=[1]
ISON('33579', '3') Truth=[0.58]
ISON('33760', '0') Truth=[1]
ISON('33579', '0') Truth=[1]
ISON('33579', '1') Truth=[1]
ISON('33350', '3') Truth=[0.6]
ISON('33350', '0') Truth=[1]
ISON('33350', '2') Truth=[0.65]
ISON('33350', '1') Truth=[0.58]
ISON('33504', '2') Truth=[0.66]
ISON('33504', '3') Truth=[0.6]
ISON('33464', '3') Truth=[0.58]
ISON('33504', '0') Truth=[1]
ISON('33504', '1') Truth=[1]
ISON('33464', '0') Truth=[1]
ISON('33464', '2') Truth=[0.65]
ISON('33464', '1') Truth=[1]
ISON('33618', '2') Truth=[0.66]
ISON('33618', '3') Truth=[0.62]
ISON('33618', '0') Truth=[1]
ISON('33578', '3') Truth=[0.63]
ISON('33618', '1') Truth=[0.62]
ISON('33578', '1') Truth=[1]
ISON('33578', '2') Truth=[0.65]
ISON('33578', '0') Truth=[1]
ISON('33503', '3') Truth=[0.62]
ISON('33503', '1') Truth=[0.61]
ISON('33503', '2') Truth=[0.65]
ISON('33463', '1') Truth=[1]
ISON('33503', '0') Truth=[1]
ISON('33463', '0') Truth=[1]
ISON('33463', '3') Truth=[0.63]
ISON('33463', '2') Truth=[0.64]
ISON('33617', '3') Truth=[0.61]
ISON('33617', '1') Truth=[0.56]
ISON('33617', '2') Truth=[0.65]
ISON('33577', '2') Truth=[0.67]
ISON('33617', '0') Truth=[1]
ISON('33577', '3') Truth=[0.64]
ISON('33577', '0') Truth=[1]
ISON('33577', '1') Truth=[1]
ISON('33502', '2') Truth=[0.65]
ISON('33502', '3') Truth=[0.61]
ISON('33502', '0') Truth=[1]
ISON('33462', '2') Truth=[0.64]
ISON('33502', '1') Truth=[0.63]
ISON('33462', '1') Truth=[1]
ISON('33462', '3') Truth=[0.58]
ISON('33462', '0') Truth=[1]
ISON('33616', '2') Truth=[0.65]
ISON('33616', '3') Truth=[0.62]
ISON('33616', '0') Truth=[1]
ISON('33576', '3') Truth=[0.58]
ISON('33616', '1') Truth=[0.62]
ISON('33576', '1') Truth=[1]
ISON('33576', '2') Truth=[0.65]
ISON('33576', '0') Truth=[1]
ISON('33501', '3') Truth=[0.61]
ISON('33501', '1') Truth=[1]
ISON('33461', '3') Truth=[0.61]
ISON('33501', '2') Truth=[0.66]
ISON('33461', '2') Truth=[0.65]
ISON('33501', '0') Truth=[1]
ISON('33461', '1') Truth=[1]
ISON('33461', '0') Truth=[1]
ISON('33615', '3') Truth=[0.61]
ISON('33615', '1') Truth=[0.61]
ISON('33615', '2') Truth=[0.66]
ISON('33575', '2') Truth=[0.64]
ISON('33615', '0') Truth=[1]
ISON('33575', '3') Truth=[0.63]
ISON('33575', '0') Truth=[1]
ISON('33575', '1') Truth=[1]
ISON('33729', '3') Truth=[0.61]
ISON('33655', '3') Truth=[0.63]
ISON('33655', '1') Truth=[1]
ISON('33655', '2') Truth=[0.64]
ISON('33655', '0') Truth=[1]
ISON('33769', '3') Truth=[0.58]
ISON('33769', '2') Truth=[0.65]
ISON('33769', '1') Truth=[1]
ISON('33769', '0') Truth=[1]
ISON('33359', '3') Truth=[0.6]
ISON('33540', '2') Truth=[0.66]
ISON('33359', '2') Truth=[0.65]
ISON('33540', '3') Truth=[0.61]
ISON('33540', '0') Truth=[0.67]
ISON('33540', '1') Truth=[0.58]
ISON('33359', '1') Truth=[0.57]
ISON('33359', '0') Truth=[1]
ISON('33654', '2') Truth=[0.64]
ISON('33654', '3') Truth=[0.58]
ISON('33654', '0') Truth=[1]
ISON('33654', '1') Truth=[1]
ISON('33768', '3') Truth=[0.63]
ISON('33768', '2') Truth=[0.65]
ISON('33768', '1') Truth=[1]
ISON('33768', '0') Truth=[1]
ISON('33358', '3') Truth=[0.62]
ISON('33358', '0') Truth=[1]
ISON('33358', '2') Truth=[0.65]
ISON('33358', '1') Truth=[0.56]
ISON('33653', '3') Truth=[0.6]
ISON('33653', '1') Truth=[1]
ISON('33653', '2') Truth=[0.64]
ISON('33653', '0') Truth=[1]
ISON('33767', '3') Truth=[0.58]
ISON('33767', '2') Truth=[0.65]
ISON('33767', '1') Truth=[1]
ISON('33767', '0') Truth=[1]
ISON('33357', '1') Truth=[0.59]
ISON('33357', '0') Truth=[1]
ISON('33357', '3') Truth=[0.59]
ISON('33357', '2') Truth=[0.65]
ISON('33652', '2') Truth=[0.64]
ISON('33652', '3') Truth=[0.58]
ISON('33652', '0') Truth=[1]
ISON('33652', '1') Truth=[1]
ISON('33766', '3') Truth=[0.63]
ISON('33766', '2') Truth=[0.65]
ISON('33766', '1') Truth=[1]
ISON('33766', '0') Truth=[1]
ISON('33356', '2') Truth=[0.65]
ISON('33356', '1') Truth=[0.6]
ISON('33356', '3') Truth=[0.6]
ISON('33356', '0') Truth=[1]
ISON('33651', '3') Truth=[0.63]
ISON('33651', '1') Truth=[1]
ISON('33651', '2') Truth=[0.64]
ISON('33651', '0') Truth=[1]
ISON('33765', '3') Truth=[0.58]
ISON('33765', '2') Truth=[0.65]
ISON('33765', '1') Truth=[1]
ISON('33765', '0') Truth=[1]
ISON('33355', '3') Truth=[0.61]
ISON('33355', '2') Truth=[0.65]
ISON('33355', '1') Truth=[0.57]
ISON('33355', '0') Truth=[1]
ISON('33509', '3') Truth=[0.62]
ISON('33650', '2') Truth=[0.64]
ISON('33509', '1') Truth=[1]
ISON('33469', '3') Truth=[0.63]
ISON('33650', '3') Truth=[0.61]
ISON('33509', '2') Truth=[0.66]
ISON('33469', '2') Truth=[0.65]
ISON('33650', '0') Truth=[1]
ISON('33650', '1') Truth=[1]
ISON('33509', '0') Truth=[1]
ISON('33469', '1') Truth=[1]
ISON('33469', '0') Truth=[1]
ISON('33764', '3') Truth=[0.63]
ISON('33764', '2') Truth=[0.65]
ISON('33764', '1') Truth=[1]
ISON('33764', '0') Truth=[1]
ISON('33354', '3') Truth=[0.6]
ISON('33354', '0') Truth=[1]
ISON('33354', '2') Truth=[0.65]
ISON('33354', '1') Truth=[0.6]
ISON('33508', '2') Truth=[0.66]
ISON('33508', '3') Truth=[0.6]
ISON('33468', '3') Truth=[0.64]
ISON('33508', '0') Truth=[1]
ISON('33508', '1') Truth=[1]
ISON('33468', '0') Truth=[1]
ISON('33468', '2') Truth=[0.66]
ISON('33468', '1') Truth=[0.65]
ISON('33763', '3') Truth=[0.58]
ISON('33763', '2') Truth=[0.65]
ISON('33763', '1') Truth=[1]
ISON('33763', '0') Truth=[1]
ISON('33722', '3') Truth=[0.61]
ISON('33722', '2') Truth=[0.66]
ISON('33722', '1') Truth=[0.6]
ISON('33722', '0') Truth=[1]
ISON('33682', '3') Truth=[0.6]
ISON('33682', '2') Truth=[0.64]
ISON('33682', '1') Truth=[1]
ISON('33682', '0') Truth=[1]
ISON('33426', '2') Truth=[0.66]
ISON('33426', '1') Truth=[0.63]
ISON('33426', '3') Truth=[0.6]
ISON('33386', '1') Truth=[1]
ISON('33386', '0') Truth=[1]
ISON('33386', '3') Truth=[0.6]
ISON('33426', '0') Truth=[1]
ISON('33386', '2') Truth=[0.66]
ISON('33721', '3') Truth=[0.62]
ISON('33721', '2') Truth=[0.66]
ISON('33721', '1') Truth=[0.56]
ISON('33721', '0') Truth=[1]
ISON('33681', '3') Truth=[0.58]
ISON('33681', '2') Truth=[0.65]
ISON('33681', '1') Truth=[1]
ISON('33681', '0') Truth=[1]
ISON('33425', '3') Truth=[0.6]
ISON('33425', '2') Truth=[0.66]
ISON('33385', '2') Truth=[0.66]
ISON('33385', '1') Truth=[1]
ISON('33425', '1') Truth=[1]
ISON('33385', '3') Truth=[0.62]
ISON('33425', '0') Truth=[1]
ISON('33385', '0') Truth=[1]
ISON('33720', '3') Truth=[0.62]
ISON('33720', '2') Truth=[0.67]
ISON('33539', '2') Truth=[0.67]
ISON('33720', '1') Truth=[0.6]
ISON('33539', '3') Truth=[0.64]
ISON('33720', '0') Truth=[0.71]
ISON('33680', '3') Truth=[0.61]
ISON('33539', '0') Truth=[0.7]
ISON('33499', '2') Truth=[0.65]
ISON('33680', '2') Truth=[0.65]
ISON('33539', '1') Truth=[0.64]
ISON('33499', '1') Truth=[1]
ISON('33680', '1') Truth=[0.6]
ISON('33680', '0') Truth=[1]
ISON('33499', '3') Truth=[0.59]
ISON('33499', '0') Truth=[1]
ISON('33424', '3') Truth=[0.64]
ISON('33384', '3') Truth=[0.6]
ISON('33424', '0') Truth=[1]
ISON('33384', '2') Truth=[0.66]
ISON('33424', '2') Truth=[0.67]
ISON('33424', '1') Truth=[0.66]
ISON('33384', '1') Truth=[1]
ISON('33384', '0') Truth=[1]
ISON('33538', '3') Truth=[0.59]
ISON('33538', '1') Truth=[1]
ISON('33498', '3') Truth=[0.63]
ISON('33538', '2') Truth=[0.67]
ISON('33498', '2') Truth=[0.65]
ISON('33538', '0') Truth=[1]
ISON('33498', '1') Truth=[0.6]
ISON('33498', '0') Truth=[1]
ISON('33423', '1') Truth=[0.61]
ISON('33383', '3') Truth=[0.62]
ISON('33423', '0') Truth=[1]
ISON('33423', '3') Truth=[0.61]
ISON('33423', '2') Truth=[0.66]
ISON('33383', '0') Truth=[1]
ISON('33383', '2') Truth=[0.66]
ISON('33383', '1') Truth=[1]
ISON('33537', '2') Truth=[0.66]
ISON('33537', '3') Truth=[0.62]
ISON('33497', '3') Truth=[0.61]
ISON('33537', '0') Truth=[1]
ISON('33537', '1') Truth=[1]
ISON('33497', '0') Truth=[1]
ISON('33497', '2') Truth=[0.65]
ISON('33497', '1') Truth=[0.63]
ISON('33422', '2') Truth=[0.66]
ISON('33422', '1') Truth=[1]
ISON('33422', '3') Truth=[0.59]
ISON('33382', '1') Truth=[1]
ISON('33382', '0') Truth=[1]
ISON('33382', '3') Truth=[0.6]
ISON('33422', '0') Truth=[1]
ISON('33382', '2') Truth=[0.66]
ISON('33536', '3') Truth=[0.59]
ISON('33536', '1') Truth=[1]
ISON('33536', '2') Truth=[0.67]
ISON('33496', '1') Truth=[1]
ISON('33536', '0') Truth=[1]
ISON('33496', '0') Truth=[1]
ISON('33496', '3') Truth=[0.59]
ISON('33496', '2') Truth=[0.66]
ISON('33421', '3') Truth=[0.59]
ISON('33421', '2') Truth=[0.65]
ISON('33381', '2') Truth=[0.66]
ISON('33381', '1') Truth=[1]
ISON('33421', '1') Truth=[1]
ISON('33381', '3') Truth=[0.62]
ISON('33421', '0') Truth=[1]
ISON('33381', '0') Truth=[1]
ISON('33535', '2') Truth=[0.65]
ISON('33535', '3') Truth=[0.61]
ISON('33535', '0') Truth=[1]
ISON('33495', '2') Truth=[0.65]
ISON('33535', '1') Truth=[1]
ISON('33495', '1') Truth=[0.6]
ISON('33495', '3') Truth=[0.61]
ISON('33495', '0') Truth=[1]
ISON('33649', '2') Truth=[0.66]
ISON('33649', '3') Truth=[0.61]
ISON('33649', '0') Truth=[1]
ISON('33649', '1') Truth=[1]
ISON('33420', '3') Truth=[0.59]
ISON('33380', '3') Truth=[0.6]
ISON('33420', '0') Truth=[1]
ISON('33380', '2') Truth=[0.66]
ISON('33420', '2') Truth=[0.65]
ISON('33420', '1') Truth=[1]
ISON('33729', '2') Truth=[0.65]
ISON('33729', '1') Truth=[0.63]
ISON('33729', '0') Truth=[1]
ISON('33689', '3') Truth=[0.61]
ISON('33689', '2') Truth=[0.64]
ISON('33689', '1') Truth=[1]
ISON('33689', '0') Truth=[1]
ISON('33500', '2') Truth=[0.65]
ISON('33500', '3') Truth=[0.61]
ISON('33460', '3') Truth=[0.63]
ISON('33500', '0') Truth=[1]
ISON('33500', '1') Truth=[1]
ISON('33460', '0') Truth=[1]
ISON('33460', '2') Truth=[0.65]
ISON('33460', '1') Truth=[1]
ISON('33614', '2') Truth=[0.67]
ISON('33614', '3') Truth=[0.59]
ISON('33614', '0') Truth=[1]
ISON('33574', '3') Truth=[0.58]
ISON('33614', '1') Truth=[1]
ISON('33574', '1') Truth=[1]
ISON('33574', '2') Truth=[0.65]
ISON('33574', '0') Truth=[1]
ISON('33728', '3') Truth=[0.6]
ISON('33728', '2') Truth=[0.65]
ISON('33728', '1') Truth=[0.6]
ISON('33728', '0') Truth=[0.65]
ISON('33688', '3') Truth=[0.61]
ISON('33688', '2') Truth=[0.65]
ISON('33688', '1') Truth=[1]
ISON('33688', '0') Truth=[1]
ISON('33613', '3') Truth=[0.59]
ISON('33613', '1') Truth=[1]
ISON('33613', '2') Truth=[0.65]
ISON('33573', '2') Truth=[0.65]
ISON('33613', '0') Truth=[1]
ISON('33573', '3') Truth=[0.62]
ISON('33573', '0') Truth=[1]
ISON('33573', '1') Truth=[0.61]
ISON('33727', '3') Truth=[0.61]
ISON('33727', '2') Truth=[0.66]
ISON('33727', '1') Truth=[0.6]
ISON('33727', '0') Truth=[0.7]
ISON('33687', '3') Truth=[0.61]
ISON('33687', '2') Truth=[0.64]
ISON('33687', '1') Truth=[0.63]
ISON('33687', '0') Truth=[1]
ISON('33612', '2') Truth=[0.65]
ISON('33612', '3') Truth=[0.58]
ISON('33612', '0') Truth=[1]
ISON('33572', '3') Truth=[0.63]
ISON('33612', '1') Truth=[1]
ISON('33572', '1') Truth=[0.62]
ISON('33572', '2') Truth=[0.65]
ISON('33572', '0') Truth=[0.69]
ISON('33726', '3') Truth=[0.6]
ISON('33726', '2') Truth=[0.66]
ISON('33726', '1') Truth=[0.63]
ISON('33726', '0') Truth=[1]
ISON('33686', '3') Truth=[0.63]
ISON('33686', '2') Truth=[0.65]
ISON('33686', '1') Truth=[0.6]
ISON('33686', '0') Truth=[1]
ISON('33611', '3') Truth=[0.63]
ISON('33611', '1') Truth=[1]
ISON('33611', '2') Truth=[0.65]
ISON('33571', '2') Truth=[0.65]
ISON('33611', '0') Truth=[1]
ISON('33571', '3') Truth=[0.62]
ISON('33571', '0') Truth=[0.63]
ISON('33571', '1') Truth=[0.61]
ISON('33725', '3') Truth=[0.62]
ISON('33725', '2') Truth=[0.66]
ISON('33725', '1') Truth=[1]
ISON('33725', '0') Truth=[1]
ISON('33685', '3') Truth=[0.58]
ISON('33685', '2') Truth=[0.65]
ISON('33685', '1') Truth=[1]
ISON('33685', '0') Truth=[1]
ISON('33429', '3') Truth=[0.62]
ISON('33610', '2') Truth=[0.65]
ISON('33429', '2') Truth=[0.66]
ISON('33610', '3') Truth=[0.61]
ISON('33610', '0') Truth=[1]
ISON('33570', '3') Truth=[0.61]
ISON('33610', '1') Truth=[1]
ISON('33389', '2') Truth=[0.66]
ISON('33570', '1') Truth=[0.61]
ISON('33389', '1') Truth=[1]
ISON('33570', '2') Truth=[0.65]
ISON('33429', '1') Truth=[0.61]
ISON('33429', '0') Truth=[1]
ISON('33389', '3') Truth=[0.62]
ISON('33570', '0') Truth=[0.63]
ISON('33389', '0') Truth=[1]
ISON('33724', '3') Truth=[0.63]
ISON('33724', '2') Truth=[0.66]
ISON('33724', '1') Truth=[0.63]
ISON('33724', '0') Truth=[1]
ISON('33684', '3') Truth=[0.63]
ISON('33684', '2') Truth=[0.65]
ISON('33684', '1') Truth=[1]
ISON('33684', '0') Truth=[1]
ISON('33428', '3') Truth=[0.59]
ISON('33428', '0') Truth=[1]
ISON('33388', '3') Truth=[0.59]
ISON('33388', '2') Truth=[0.67]
ISON('33428', '2') Truth=[0.67]
ISON('33428', '1') Truth=[1]
ISON('33388', '1') Truth=[1]
ISON('33388', '0') Truth=[1]
ISON('33723', '3') Truth=[0.62]
ISON('33723', '2') Truth=[0.66]
ISON('33723', '1') Truth=[0.56]
ISON('33723', '0') Truth=[1]
ISON('33683', '3') Truth=[0.58]
ISON('33683', '2') Truth=[0.65]
ISON('33683', '1') Truth=[1]
ISON('33683', '0') Truth=[1]
ISON('33427', '1') Truth=[0.65]
ISON('33387', '3') Truth=[0.61]
ISON('33427', '0') Truth=[1]
ISON('33427', '3') Truth=[0.64]
ISON('33427', '2') Truth=[0.66]
ISON('33387', '0') Truth=[1]
ISON('33387', '2') Truth=[0.65]
ISON('33387', '1') Truth=[1]
ISON('33756', '0') Truth=[1]
ISON('33346', '1') Truth=[1]
ISON('33346', '0') Truth=[1]
ISON('33346', '3') Truth=[0.58]
ISON('33346', '2') Truth=[0.65]
ISON('33641', '2') Truth=[0.65]
ISON('33641', '3') Truth=[0.59]
ISON('33641', '0') Truth=[1]
ISON('33641', '1') Truth=[1]
ISON('33755', '3') Truth=[0.61]
ISON('33755', '2') Truth=[0.65]
ISON('33755', '1') Truth=[0.62]
ISON('33755', '0') Truth=[1]
ISON('33345', '2') Truth=[0.65]
ISON('33345', '1') Truth=[0.6]
ISON('33345', '3') Truth=[0.61]
ISON('33345', '0') Truth=[1]
ISON('33640', '3') Truth=[0.58]
ISON('33459', '2') Truth=[0.66]
ISON('33640', '1') Truth=[1]
ISON('33459', '1') Truth=[1]
ISON('33640', '2') Truth=[0.65]
ISON('33459', '3') Truth=[0.59]
ISON('33640', '0') Truth=[1]
ISON('33459', '0') Truth=[1]
ISON('33754', '3') Truth=[0.61]
ISON('33754', '2') Truth=[0.66]
ISON('33754', '1') Truth=[0.6]
ISON('33754', '0') Truth=[0.7]
ISON('33344', '3') Truth=[0.63]
ISON('33344', '2') Truth=[0.66]
ISON('33344', '1') Truth=[0.63]
ISON('33344', '0') Truth=[1]
ISON('33458', '3') Truth=[0.63]
ISON('33458', '2') Truth=[0.65]
ISON('33458', '1') Truth=[0.6]
ISON('33458', '0') Truth=[1]
ISON('33753', '3') Truth=[0.61]
ISON('33753', '2') Truth=[0.66]
ISON('33753', '1') Truth=[0.6]
ISON('33753', '0') Truth=[0.65]
ISON('33343', '3') Truth=[0.58]
ISON('33343', '0') Truth=[1]
ISON('33343', '2') Truth=[0.65]
ISON('33343', '1') Truth=[1]
ISON('33457', '3') Truth=[0.62]
ISON('33457', '0') Truth=[0.69]
ISON('33457', '2') Truth=[0.66]
ISON('33457', '1') Truth=[0.62]
ISON('33752', '3') Truth=[0.63]
ISON('33752', '2') Truth=[0.66]
ISON('33752', '1') Truth=[0.63]
ISON('33752', '0') Truth=[0.7]
ISON('33342', '1') Truth=[0.6]
ISON('33342', '0') Truth=[1]
ISON('33342', '3') Truth=[0.61]
ISON('33342', '2') Truth=[0.65]
ISON('33456', '1') Truth=[0.6]
ISON('33456', '0') Truth=[0.7]
ISON('33456', '3') Truth=[0.63]
ISON('33456', '2') Truth=[0.67]
ISON('33751', '3') Truth=[0.59]
ISON('33751', '2') Truth=[0.66]
ISON('33751', '1') Truth=[1]
ISON('33751', '0') Truth=[1]
ISON('33341', '2') Truth=[0.66]
ISON('33341', '1') Truth=[0.65]
ISON('33341', '3') Truth=[0.64]
ISON('33341', '0') Truth=[1]
ISON('33455', '2') Truth=[0.66]
ISON('33455', '1') Truth=[0.61]
ISON('33455', '3') Truth=[0.61]
ISON('33455', '0') Truth=[1]
ISON('33609', '2') Truth=[0.64]
ISON('33609', '3') Truth=[0.58]
ISON('33750', '3') Truth=[0.61]
ISON('33609', '0') Truth=[1]
ISON('33569', '3') Truth=[0.6]
ISON('33750', '2') Truth=[0.65]
ISON('33609', '1') Truth=[1]
ISON('33750', '1') Truth=[0.63]
ISON('33569', '1') Truth=[0.6]
ISON('33750', '0') Truth=[1]
ISON('33569', '2') Truth=[0.65]
ISON('33569', '0') Truth=[0.62]
ISON('33340', '3') Truth=[0.58]
ISON('33340', '2') Truth=[0.65]
ISON('33340', '1') Truth=[1]
ISON('33340', '0') Truth=[1]
ISON('33454', '3') Truth=[0.6]
ISON('33454', '2') Truth=[0.67]
ISON('33454', '1') Truth=[1]
ISON('33454', '0') Truth=[1]
ISON('33608', '3') Truth=[0.6]
ISON('33380', '1') Truth=[1]
ISON('33380', '0') Truth=[1]
ISON('33534', '3') Truth=[0.6]
ISON('33534', '1') Truth=[1]
ISON('33494', '3') Truth=[0.63]
ISON('33534', '2') Truth=[0.67]
ISON('33494', '2') Truth=[0.66]
ISON('33534', '0') Truth=[1]
ISON('33494', '1') Truth=[0.65]
ISON('33494', '0') Truth=[1]
ISON('33648', '3') Truth=[0.63]
ISON('33648', '1') Truth=[1]
ISON('33648', '2') Truth=[0.65]
ISON('33648', '0') Truth=[1]
ISON('33533', '2') Truth=[0.66]
ISON('33533', '3') Truth=[0.61]
ISON('33493', '3') Truth=[0.59]
ISON('33533', '0') Truth=[1]
ISON('33533', '1') Truth=[1]
ISON('33493', '0') Truth=[1]
ISON('33493', '2') Truth=[0.66]
ISON('33493', '1') Truth=[1]
ISON('33647', '2') Truth=[0.65]
ISON('33647', '3') Truth=[0.61]
ISON('33647', '0') Truth=[1]
ISON('33647', '1') Truth=[0.61]
ISON('33532', '3') Truth=[0.6]
ISON('33532', '1') Truth=[1]
ISON('33532', '2') Truth=[0.67]
ISON('33492', '1') Truth=[0.66]
ISON('33532', '0') Truth=[1]
ISON('33492', '0') Truth=[1]
ISON('33492', '3') Truth=[0.64]
ISON('33492', '2') Truth=[0.66]
ISON('33646', '3') Truth=[0.63]
ISON('33646', '1') Truth=[0.62]
ISON('33646', '2') Truth=[0.65]
ISON('33646', '0') Truth=[1]
ISON('33531', '2') Truth=[0.66]
ISON('33531', '3') Truth=[0.61]
ISON('33531', '0') Truth=[1]
ISON('33491', '2') Truth=[0.66]
ISON('33531', '1') Truth=[1]
ISON('33491', '1') Truth=[0.61]
ISON('33491', '3') Truth=[0.62]
ISON('33491', '0') Truth=[1]
ISON('33645', '2') Truth=[0.65]
ISON('33645', '3') Truth=[0.6]
ISON('33645', '0') Truth=[1]
ISON('33645', '1') Truth=[0.59]
ISON('33759', '3') Truth=[0.63]
ISON('33759', '2') Truth=[0.65]
ISON('33759', '1') Truth=[1]
ISON('33759', '0') Truth=[1]
ISON('33530', '3') Truth=[0.6]
ISON('33349', '2') Truth=[0.66]
ISON('33530', '1') Truth=[1]
ISON('33490', '3') Truth=[0.61]
ISON('33349', '1') Truth=[0.65]
ISON('33530', '2') Truth=[0.67]
ISON('33490', '2') Truth=[0.66]
ISON('33349', '3') Truth=[0.64]
ISON('33530', '0') Truth=[1]
ISON('33349', '0') Truth=[0.96]
ISON('33490', '1') Truth=[1]
ISON('33490', '0') Truth=[1]
ISON('33644', '3') Truth=[0.6]
ISON('33644', '1') Truth=[0.57]
ISON('33644', '2') Truth=[0.65]
ISON('33644', '0') Truth=[1]
ISON('33758', '3') Truth=[0.58]
ISON('33758', '2') Truth=[0.65]
ISON('33758', '1') Truth=[1]
ISON('33758', '0') Truth=[1]
ISON('33348', '3') Truth=[0.61]
ISON('33348', '2') Truth=[0.65]
ISON('33348', '1') Truth=[1]
ISON('33348', '0') Truth=[1]
ISON('33643', '2') Truth=[0.65]
ISON('33643', '3') Truth=[0.61]
ISON('33643', '0') Truth=[1]
ISON('33643', '1') Truth=[0.63]
ISON('33757', '3') Truth=[0.61]
ISON('33757', '2') Truth=[0.65]
ISON('33757', '1') Truth=[1]
ISON('33757', '0') Truth=[1]
ISON('33347', '3') Truth=[0.62]
ISON('33347', '0') Truth=[1]
ISON('33347', '2') Truth=[0.65]
ISON('33347', '1') Truth=[1]
ISON('33642', '3') Truth=[0.61]
ISON('33642', '1') Truth=[1]
ISON('33642', '2') Truth=[0.65]
ISON('33642', '0') Truth=[1]
ISON('33756', '3') Truth=[0.59]
ISON('33756', '2') Truth=[0.66]
ISON('33756', '1') Truth=[1]
# Atoms: 1856
